<?xml version="1.0" encoding="utf-8"?>
<!-- Generator: Adobe Illustrator 16.0.3, SVG Export Plug-In . SVG Version: 6.00 Build 0)  -->
<!DOCTYPE svg PUBLIC "-//W3C//DTD SVG 1.1//EN" "http://www.w3.org/Graphics/SVG/1.1/DTD/svg11.dtd">
<svg version="1.1" xmlns="http://www.w3.org/2000/svg" xmlns:xlink="http://www.w3.org/1999/xlink" x="0px" y="0px" width="24px"
	 height="24px" viewBox="0 0 24 24" enable-background="new 0 0 24 24" xml:space="preserve">
	<g id="Outline_Icons">
		<g>
			<path d="M11,17h-0.5c-0.276,0-0.5,0.224-0.5,0.5s0.224,0.5,0.5,0.5H11c0.276,0,0.5-0.224,0.5-0.5S11.276,17,11,17z"/>
			<path d="M20.818,17h-1.091c-0.276,0-0.5,0.224-0.5,0.5s0.224,0.5,0.5,0.5h1.091c0.276,0,0.5-0.224,0.5-0.5S21.095,17,20.818,17z"
				/>
			<path d="M17.545,17h-1.091c-0.276,0-0.5,0.224-0.5,0.5s0.224,0.5,0.5,0.5h1.091c0.276,0,0.5-0.224,0.5-0.5S17.821,17,17.545,17z"
				/>
			<path d="M14.272,17h-1.091c-0.276,0-0.5,0.224-0.5,0.5s0.224,0.5,0.5,0.5h1.091c0.276,0,0.5-0.224,0.5-0.5S14.549,17,14.272,17z"
				/>
			<path d="M23.5,17H23c-0.276,0-0.5,0.224-0.5,0.5S22.724,18,23,18h0.5c0.276,0,0.5-0.224,0.5-0.5S23.776,17,23.5,17z"/>
			<path d="M10.562,15.85c0.098,0.1,0.228,0.15,0.357,0.15c0.126,0,0.252-0.047,0.35-0.142c0.197-0.193,0.201-0.51,0.008-0.708
				c-0.643-0.657-1.224-1.387-1.738-2.163l7.783,2.979c0.257,0.098,0.547-0.03,0.646-0.288s-0.03-0.546-0.288-0.646l-7.934-3.038
				l13.937-5.44C23.869,6.482,23.994,6.304,24,6.104s-0.109-0.385-0.291-0.469c-4.748-2.179-8.519-0.858-10.845,0.633
				C11.1,7.4,9.566,9.036,8.4,10.929C7.512,9.021,7,6.964,7,5c0-1.93-1.57-3.5-3.5-3.5S0,3.07,0,5s1.57,3.5,3.5,3.5
				c1.094,0,2.061-0.515,2.703-1.304c0.268,1.634,0.81,3.27,1.6,4.795c-0.786,1.513-1.342,3.148-1.611,4.798
				C5.549,16.009,4.588,15.5,3.5,15.5C1.57,15.5,0,17.07,0,19s1.57,3.5,3.5,3.5S7,20.93,7,19c0-2.007,0.521-4.065,1.405-5.956
				C9.027,14.059,9.742,15.012,10.562,15.85z M13.404,7.11c1.311-0.841,3.126-1.621,5.348-1.621c1.044,0,2.179,0.172,3.393,0.592
				L9.53,11.006C10.577,9.432,11.9,8.074,13.404,7.11z M3.5,7.5C2.121,7.5,1,6.378,1,5s1.121-2.5,2.5-2.5S6,3.622,6,5
				S4.879,7.5,3.5,7.5z M3.5,21.5C2.121,21.5,1,20.378,1,19s1.121-2.5,2.5-2.5S6,17.622,6,19S4.879,21.5,3.5,21.5z"/>
		</g>
	</g>
</svg>