<?xml version="1.0" encoding="utf-8"?>
<!-- Generator: Adobe Illustrator 16.0.3, SVG Export Plug-In . SVG Version: 6.00 Build 0)  -->
<!DOCTYPE svg PUBLIC "-//W3C//DTD SVG 1.1//EN" "http://www.w3.org/Graphics/SVG/1.1/DTD/svg11.dtd">
<svg version="1.1" xmlns="http://www.w3.org/2000/svg" xmlns:xlink="http://www.w3.org/1999/xlink" x="0px" y="0px" width="24px"
	 height="24px" viewBox="0 0 24 24" enable-background="new 0 0 24 24" xml:space="preserve">
	<g id="Outline_Icons">
		<path d="M23.859,2.258c-0.158-0.138-0.387-0.161-0.57-0.06L18,5.13V0.646c0-0.201-0.121-0.383-0.306-0.461
			c-0.185-0.078-0.399-0.037-0.543,0.104L10.296,7L4.5,6.996c0,0,0,0,0,0C4.493,6.996,4.488,6.999,4.481,7
			C4.448,7,4.416,7.011,4.383,7.019C4.351,7.027,4.32,7.032,4.29,7.046C4.283,7.049,4.275,7.049,4.269,7.052
			C4.246,7.064,4.231,7.084,4.21,7.099C4.189,7.115,4.165,7.124,4.146,7.142l-4,4.004c-0.143,0.143-0.186,0.358-0.108,0.545
			C0.116,11.878,0.298,12,0.5,12h5.789l3.763,7.201c0.057,0.113,0.155,0.203,0.276,0.247l11.042,4.351
			c0.06,0.023,0.122,0.035,0.183,0.035c0.149,0,0.295-0.067,0.393-0.19c0.137-0.173,0.144-0.415,0.018-0.595l-3.687-5.282
			l5.722-14.952C24.073,2.619,24.018,2.396,23.859,2.258z M17,15.938l-5.848-8.378L17,1.836V15.938z M1.706,11l2.666-2.668L5.767,11
			H1.706z M5.326,7.996L10,8v8.942L5.326,7.996z M11,18.639V9.09l9.194,13.171L11,18.639z M18,15.69V6.273l4.574-2.535L18,15.69z"/>
	</g>
</svg>