<?xml version="1.0" encoding="utf-8"?>
<!-- Generator: Adobe Illustrator 16.0.3, SVG Export Plug-In . SVG Version: 6.00 Build 0)  -->
<!DOCTYPE svg PUBLIC "-//W3C//DTD SVG 1.1//EN" "http://www.w3.org/Graphics/SVG/1.1/DTD/svg11.dtd">
<svg version="1.1" xmlns="http://www.w3.org/2000/svg" xmlns:xlink="http://www.w3.org/1999/xlink" x="0px" y="0px" width="24px"
	 height="24px" viewBox="0 0 24 24" enable-background="new 0 0 24 24" xml:space="preserve">
<g id="Outline_Icons">
	<g>
		<path d="M17.5,22h-1.162L9.453,1.839C9.384,1.636,9.193,1.5,8.979,1.5S8.575,1.637,8.506,1.839L1.642,22H0.5
			C0.224,22,0,22.224,0,22.5S0.224,23,0.5,23h3.021c0.276,0,0.5-0.224,0.5-0.5S3.797,22,3.521,22H2.699l2.042-6h8.49l2.049,6h-0.801
			c-0.276,0-0.5,0.224-0.5,0.5s0.224,0.5,0.5,0.5H17.5c0.276,0,0.5-0.224,0.5-0.5S17.776,22,17.5,22z M5.082,15L8.98,3.55L12.89,15
			H5.082z"/>
		<path d="M23.5,22h-0.641L18.377,8.874c-0.069-0.203-0.26-0.339-0.474-0.339s-0.404,0.137-0.474,0.339l-2.36,6.932
			c-0.089,0.262,0.051,0.546,0.312,0.635c0.261,0.086,0.545-0.051,0.635-0.312l1.888-5.544L20.095,17H16.92
			c-0.276,0-0.5,0.224-0.5,0.5s0.224,0.5,0.5,0.5h3.517l1.365,4h-0.286c-0.276,0-0.5,0.224-0.5,0.5s0.224,0.5,0.5,0.5H23.5
			c0.276,0,0.5-0.224,0.5-0.5S23.776,22,23.5,22z"/>
	</g>
</g>
</svg>
