<?xml version="1.0" encoding="utf-8"?>
<!-- Generator: Adobe Illustrator 16.0.3, SVG Export Plug-In . SVG Version: 6.00 Build 0)  -->
<!DOCTYPE svg PUBLIC "-//W3C//DTD SVG 1.1//EN" "http://www.w3.org/Graphics/SVG/1.1/DTD/svg11.dtd">
<svg version="1.1" xmlns="http://www.w3.org/2000/svg" xmlns:xlink="http://www.w3.org/1999/xlink" x="0px" y="0px" width="24px"
	 height="24px" viewBox="0 0 24 24" enable-background="new 0 0 24 24" xml:space="preserve">
	<g id="Outline_Icons_1_">
		<g id="Outline_Icons">
			<g>
				<path d="M13.5,6.5C13.224,6.5,13,6.724,13,7v5.5c0,0.276,0.224,0.5,0.5,0.5h5c0.276,0,0.5-0.224,0.5-0.5S18.776,12,18.5,12H14V7
					C14,6.724,13.776,6.5,13.5,6.5z"/>
				<path d="M13.5,2c-5.465,0-9.914,4.408-9.992,9.854L1.416,8.717C1.262,8.486,0.95,8.426,0.723,8.578
					C0.493,8.731,0.431,9.042,0.584,9.271l3,4.5c0.191,0.289,0.604,0.279,0.792,0.052l3.5-4C8.059,9.615,8.037,9.3,7.829,9.118
					C7.622,8.938,7.306,8.956,7.124,9.165L4.5,12.164C4.5,6.777,8.736,3,13.5,3c4.963,0,9,4.037,9,9s-4.037,9-9,9
					c-0.276,0-0.5,0.224-0.5,0.5s0.224,0.5,0.5,0.5c5.514,0,10-4.486,10-10S19.014,2,13.5,2z"/>
			</g>
		</g>
	</g>
</svg>
