<?xml version="1.0" encoding="utf-8"?>
<!-- Generator: Adobe Illustrator 21.0.0, SVG Export Plug-In . SVG Version: 6.00 Build 0)  -->
<!DOCTYPE svg PUBLIC "-//W3C//DTD SVG 1.1//EN" "http://www.w3.org/Graphics/SVG/1.1/DTD/svg11.dtd">
<svg version="1.1" id="Laag_1" xmlns="http://www.w3.org/2000/svg" xmlns:xlink="http://www.w3.org/1999/xlink" x="0px" y="0px"
	 viewBox="0 0 100 100" style="enable-background:new 0 0 100 100;" xml:space="preserve">
<g>
	<path d="M7.7,11.4c-1.3,0-2.3-1-2.3-2.3V5.2c0-1.3,1-2.3,2.3-2.3h3.9c1.3,0,2.3,1,2.3,2.3s-1,2.3-2.3,2.3H10v1.5
		C10,10.3,9,11.4,7.7,11.4z"/>
	<path d="M46.3,11.4c-1.3,0-2.3-1-2.3-2.3V7.5h-1.5c-1.3,0-2.3-1-2.3-2.3s1-2.3,2.3-2.3h3.9c1.3,0,2.3,1,2.3,2.3v3.9
		C48.6,10.3,47.6,11.4,46.3,11.4z"/>
	<path d="M7.7,23c-1.3,0-2.3-1-2.3-2.3v-3.9c0-1.3,1-2.3,2.3-2.3s2.3,1,2.3,2.3v3.9C10,21.9,9,23,7.7,23z"/>
	<path d="M23.2,7.5h-3.9c-1.3,0-2.3-1-2.3-2.3s1-2.3,2.3-2.3h3.9c1.3,0,2.3,1,2.3,2.3S24.4,7.5,23.2,7.5z"/>
	<path d="M23.2,46.1h-3.9c-1.3,0-2.3-1-2.3-2.3c0-1.3,1-2.3,2.3-2.3h3.9c1.3,0,2.3,1,2.3,2.3C25.5,45.1,24.4,46.1,23.2,46.1z"/>
	<path d="M34.7,7.5h-3.9c-1.3,0-2.3-1-2.3-2.3s1-2.3,2.3-2.3h3.9c1.3,0,2.3,1,2.3,2.3S36,7.5,34.7,7.5z"/>
	<path d="M34.7,46.1h-3.9c-1.3,0-2.3-1-2.3-2.3c0-1.3,1-2.3,2.3-2.3h3.9c1.3,0,2.3,1,2.3,2.3C37.1,45.1,36,46.1,34.7,46.1z"/>
	<path d="M46.3,46.1h-3.9c-1.3,0-2.3-1-2.3-2.3c0-1.3,1-2.3,2.3-2.3H44v-1.5c0-1.3,1-2.3,2.3-2.3s2.3,1,2.3,2.3v3.9
		C48.6,45.1,47.6,46.1,46.3,46.1z"/>
	<path d="M46.3,34.5c-1.3,0-2.3-1-2.3-2.3v-3.9c0-1.3,1-2.3,2.3-2.3s2.3,1,2.3,2.3v3.9C48.6,33.5,47.6,34.5,46.3,34.5z"/>
	<path d="M11.6,46.1H7.7c-1.3,0-2.3-1-2.3-2.3v-3.9c0-1.3,1-2.3,2.3-2.3s2.3,1,2.3,2.3v1.5h1.5c1.3,0,2.3,1,2.3,2.3
		C13.9,45.1,12.9,46.1,11.6,46.1z"/>
	<path d="M7.7,34.5c-1.3,0-2.3-1-2.3-2.3v-3.9c0-1.3,1-2.3,2.3-2.3s2.3,1,2.3,2.3v3.9C10,33.5,9,34.5,7.7,34.5z"/>
	<path d="M46.3,23c-1.3,0-2.3-1-2.3-2.3v-3.9c0-1.3,1-2.3,2.3-2.3s2.3,1,2.3,2.3v3.9C48.6,21.9,47.6,23,46.3,23z"/>
	<path d="M94.3,36.4L78.8,21c-0.2-0.2-0.5-0.4-0.8-0.5c-0.6-0.2-1.2-0.2-1.8,0c-0.3,0.1-0.5,0.3-0.8,0.5L60.1,36.4
		c-0.9,0.9-0.9,2.4,0,3.3c0.9,0.9,2.4,0.9,3.3,0l11.5-11.5v54.2c0,1.3,1,2.3,2.3,2.3c1.3,0,2.3-1,2.3-2.3V28.2L91,39.7
		c0.5,0.5,1,0.7,1.6,0.7c0.6,0,1.2-0.2,1.6-0.7C95.2,38.8,95.2,37.3,94.3,36.4z"/>
	<path d="M46.3,53.1H7.7c-1.3,0-2.3,1-2.3,2.3V94c0,1.3,1,2.3,2.3,2.3h38.6c1.3,0,2.3-1,2.3-2.3V55.4C48.6,54.1,47.6,53.1,46.3,53.1
		z"/>
</g>
</svg>
