<?xml version="1.0" encoding="utf-8"?>
<!-- Generator: Adobe Illustrator 16.0.3, SVG Export Plug-In . SVG Version: 6.00 Build 0)  -->
<!DOCTYPE svg PUBLIC "-//W3C//DTD SVG 1.1//EN" "http://www.w3.org/Graphics/SVG/1.1/DTD/svg11.dtd">
<svg version="1.1" xmlns="http://www.w3.org/2000/svg" xmlns:xlink="http://www.w3.org/1999/xlink" x="0px" y="0px" width="24px"
	 height="24px" viewBox="0 0 24 24" enable-background="new 0 0 24 24" xml:space="preserve">
<g id="Outline_Icons_1_">
	<g>
		<path d="M16,12.5c0-0.276-0.224-0.5-0.5-0.5h-15C0.224,12,0,12.224,0,12.5S0.224,13,0.5,13h15C15.776,13,16,12.776,16,12.5z"/>
		<path d="M8.146,8.854c0.195,0.195,0.512,0.195,0.707,0l7-7C16.166,1.541,15.946,1,15.5,1h-14C1.054,1,0.834,1.541,1.146,1.854
			L8.146,8.854z M14.293,2L8.5,7.793L2.707,2H14.293z"/>
		<path d="M8.854,16.146c-0.195-0.195-0.512-0.195-0.707,0l-7,7C0.834,23.459,1.054,24,1.5,24h14c0.008,0.001,0.015,0,0.02,0
			c0.505,0,0.688-0.666,0.261-0.928L8.854,16.146z M2.707,23L8.5,17.207L14.293,23H2.707z"/>
		<path d="M24,12c0-3.584-2.916-6.5-6.5-6.5C17.224,5.5,17,5.724,17,6s0.224,0.5,0.5,0.5c3.032,0,5.5,2.468,5.5,5.5
			c0,2.645-1.833,4.832-4.322,5.368l1.706-2.048c0.177-0.212,0.148-0.527-0.063-0.704c-0.212-0.176-0.527-0.148-0.704,0.063l-2.5,3
			c-0.091,0.109-0.132,0.252-0.111,0.392c0.021,0.141,0.1,0.266,0.218,0.345l3,2c0.228,0.152,0.539,0.093,0.693-0.139
			c0.153-0.229,0.091-0.54-0.139-0.693l-1.859-1.24C21.848,17.702,24,15.117,24,12z"/>
	</g>
</g>
<g id="Invisible_Shape">
	<rect fill="none" width="24" height="24"/>
</g>
</svg>
